…
First, do some data cleaning:

``` r
data("brfss_smart2010") 

brfss_smart2010 = 
  brfss_smart2010 %>% 
  janitor::clean_names() %>% 
  filter(topic == "Overall Health", response %in% c("Excellent", "Very good", "Good", "Fair", "Poor")) %>% 
  mutate(response = factor(response, levels = c("Poor", "Fair", "Good", "Very good","Excellent" )))   #organize responses as a factor 

brfss_smart2010
```

    ## # A tibble: 10,625 x 23
    ##     year locationabbr locationdesc  class  topic  question  response sample_size
    ##    <int> <chr>        <chr>         <chr>  <chr>  <chr>     <fct>          <int>
    ##  1  2010 AL           AL - Jeffers~ Healt~ Overa~ How is y~ Excelle~          94
    ##  2  2010 AL           AL - Jeffers~ Healt~ Overa~ How is y~ Very go~         148
    ##  3  2010 AL           AL - Jeffers~ Healt~ Overa~ How is y~ Good             208
    ##  4  2010 AL           AL - Jeffers~ Healt~ Overa~ How is y~ Fair             107
    ##  5  2010 AL           AL - Jeffers~ Healt~ Overa~ How is y~ Poor              45
    ##  6  2010 AL           AL - Mobile ~ Healt~ Overa~ How is y~ Excelle~          91
    ##  7  2010 AL           AL - Mobile ~ Healt~ Overa~ How is y~ Very go~         177
    ##  8  2010 AL           AL - Mobile ~ Healt~ Overa~ How is y~ Good             224
    ##  9  2010 AL           AL - Mobile ~ Healt~ Overa~ How is y~ Fair             120
    ## 10  2010 AL           AL - Mobile ~ Healt~ Overa~ How is y~ Poor              66
    ## # ... with 10,615 more rows, and 15 more variables: data_value <dbl>,
    ## #   confidence_limit_low <dbl>, confidence_limit_high <dbl>,
    ## #   display_order <int>, data_value_unit <chr>, data_value_type <chr>,
    ## #   data_value_footnote_symbol <chr>, data_value_footnote <chr>,
    ## #   data_source <chr>, class_id <chr>, topic_id <chr>, location_id <chr>,
    ## #   question_id <chr>, respid <chr>, geo_location <chr>
…
    ## `summarise()` has grouped output by 'year'. You can override using the `.groups` argument.

``` r
p2_q2
```

    ## # A tibble: 443 x 3
    ## # Groups:   year [9]
    ##     year locationabbr  mean
    ##    <int> <chr>        <dbl>
    ##  1  2002 AK            27.9
    ##  2  2002 AL            18.5
    ##  3  2002 AR            24.1
    ##  4  2002 AZ            24.1
    ##  5  2002 CA            22.7
    ##  6  2002 CO            23.1
    ##  7  2002 CT            29.1
    ##  8  2002 DC            29.3
    ##  9  2002 DE            20.9
    ## 10  2002 FL            25.7
    ## # ... with 433 more rows
…
    ## -- Column specification --------------------------------------------------------
    ## Delimiter: ","
    ## chr    (1): day
    ## dbl (1442): week, day_id, activity.1, activity.2, activity.3, activity.4, ac...

    ## 
    ## i Use `spec()` to retrieve the full column specification for this data.
    ## i Specify the column types or set `show_col_types = FALSE` to quiet this message.

``` r
data
```

    ## # A tibble: 50,400 x 6
    ##     week day_id day    weekday_vs_weekend minute activity_value
    ##    <dbl>  <dbl> <chr>  <chr>              <chr>           <dbl>
    ##  1     1      1 Friday weekday            1                88.4
    ##  2     1      1 Friday weekday            2                82.2
    ##  3     1      1 Friday weekday            3                64.4
    ##  4     1      1 Friday weekday            4                70.0
    ##  5     1      1 Friday weekday            5                75.0
    ##  6     1      1 Friday weekday            6                66.3
    ##  7     1      1 Friday weekday            7                53.8
    ##  8     1      1 Friday weekday            8                47.8
    ##  9     1      1 Friday weekday            9                55.5
    ## 10     1      1 Friday weekday            10               43.0
    ## # ... with 50,390 more rows
…
